{
    "response_code": 0,
    "results": [
      {
        "category": "Entrepreneurship",
        "type": "multiple",
        "difficulty": "medium",
        "question": "A large increase in the number of delicious moldovian restaurants in a community is most likely to result in: ",
        "correct_answer": "Lower prices and higher quality",
        "incorrect_answers": [
          "Lower prices and lower quality",
          "Higher prices and higher quality",
          "Don’t know"
        ]
      },
      {
        "category": "Entrepreneurship",
        "type": "multiple",
        "difficulty": "easy",
        "question": "A person who starts a business to produce a new product in the marketplace is known as: ",
        "correct_answer": "An entrepreneur",
        "incorrect_answers": [
          "A manager",
          "A bureaucrat",
          "Don’t know"
        ]
      },
      {
        "category": "Entrepreneurship",
        "type": "multiple",
        "difficulty": "easy",
        "question": "An increase from 5% to 8% in the interest rates charged by banks would most likely encourage: ",
        "correct_answer": "People to save money",
        "incorrect_answers": [
          "Businesses to invest",
          "People to purchase housing",
          "Don’t know"
        ]
      },
      {
        "category": "Entrepreneurship",
        "type": "multiple",
        "difficulty": "easy",
        "question": "For most people, the largest portion of their personal income comes from:",
        "correct_answer": "Wages and salaries from their jobs",
        "incorrect_answers": [
          "Interest from stocks and bonds they own",
          "Rent paid to them from property they own",
          "Don’t know"
        ]
      },
      {
        "category": "Entrepreneurship",
        "type": "multiple",
        "difficulty": "hard",
        "question": "If the price of beef doubled and the price of  steak stayed the same, people would most likely buy:",
        "correct_answer": "More steak and less beef",
        "incorrect_answers": [
          "Less steak and more beef",
          "The same amount of steak and beef",
          "Don’t know"
        ]
      },
      {
        "category": "Entrepreneurship",
        "type": "multiple",
        "difficulty": "easy",
        "question": "If the real gross domestic product of the Republic of Moldova has increased, but the production of goods has remained the same, then the production of services has:",
        "correct_answer": "Increased",
        "incorrect_answers": [
          "Decreased",
          "Remained the same",
          "Don’t know"
        ]
      },
      {
        "category": "Entrepreneurship",
        "type": "multiple",
        "difficulty": "medium",
        "question": "If the Republic Moldova stopped importing tomatoes from Turkey, who would be most likely to benefit?",
        "correct_answer": "Tomatoes Farms in the Republic of Moldova",
        "incorrect_answers": [
          "Tomatoes farm in Turkey",
          "Consumers in the Republic Moldova",
          "Don’t know"
        ]
      },
      {
        "category": "Entrepreneurship",
        "type": "multiple",
        "difficulty": "medium",
        "question": "In the Republic of Moldova, who determines what goods and services should be produced?",
        "correct_answer": "Producers, consumers, and government",
        "incorrect_answers": [
          "Producers and government",
          "Consumers and government",
          "Don’t know"
        ]
      },
      {
        "category": "Entrepreneurship",
        "type": "multiple",
        "difficulty": "medium",
        "question": "Republic of Moldova grows fruits and vegetables and Romania produces cars. If Republic of Moldova voluntarily trades fruits and vegetables in exchange for Argentinean car, then:",
        "correct_answer": "Both  benefit from the trade",
        "incorrect_answers": [
          "Both lose from the trade",
          "Republic of Moldova benefits and Romania loses from the trade",
          "Don’t know"
        ]
      },
      {
        "category": "Entrepreneurship",
        "type": "multiple",
        "difficulty": "medium",
        "question": "The wineries have their manufacturing plants running night and day, but they are unable to produce enough wine to satisfy demand. If wineries cannot increase production and demand continues to increase, the price wine will:",
        "correct_answer": "Increase",
        "incorrect_answers": [
          "Decrease",
          "Stay the same",
          "Don’t know"
        ]
      },
      {
        "category": "Entrepreneurship",
        "type": "multiple",
        "difficulty": "medium",
        "question": "The resources used in the production of goods and services are limited, so society must:",
        "correct_answer": "Make choices about how to use resources",
        "incorrect_answers": [
          "Try to obtain additional resources",
          "Reduce their use of resources",
          "Don’t know"
        ]
      },
      {
        "category": "Entrepreneurship",
        "type": "multiple",
        "difficulty": "medium",
        "question": "When deciding which of the two items to purchase, one should always:",
        "correct_answer": "Choose an item after comparing the costs and benefits of both items",
        "incorrect_answers": [
          "Choose the item that costs less",
          "Choose the item with the greatest benefits",
          "Don’t know"
        ]
      },
      {
        "category": "Entrepreneurship",
        "type": "multiple",
        "difficulty": "medium",
        "question": "When the  government's expenditures for a year are greater than its revenue for that year, the difference is known as:",
        "correct_answer": "A budget deficit",
        "incorrect_answers": [
          "The national debt",
          "A budget surplus",
          "Don’t know"
        ]
      },
      {
        "category": "Entrepreneurship",
        "type": "multiple",
        "difficulty": "medium",
        "question": "Which of the following are most likely to be helped by inflation?",
        "correct_answer": "People who borrowed money at a fixed rate of interest",
        "incorrect_answers": [
          "People living on a fixed income",
          "Banks that loaned money at a fixed rate of interest",
          "Don’t know"
        ]
      }
    ]
  }